{
	"info": {
		"_postman_id": "95bb712f-fc04-4a66-8c71-f0f00e7ef018",
		"name": "rest_allApi_configuration Copy",
		"schema": "https://schema.getpostman.com/json/collection/v2.1.0/collection.json",
		"_exporter_id": "31567059"
	},
	"item": [
		{
			"name": "rest_api",
			"item": [
				{
					"name": "postApis",
					"item": [
						{
							"name": "post_api_create",
							"event": [
								{
									"listen": "test",
									"script": {
										"exec": [
											"//validate request body parameters\r",
											"var requestBody=pm.request.body.raw;\r",
											"console.log(requestBody);\r",
											"requestBody=JSON.parse(requestBody);\r",
											"console.log(requestBody);\r",
											"var req_name=requestBody.name;\r",
											"var req_job=requestBody.job;\r",
											"//validate response code\r",
											"pm.test(\"status code is 201\",function(){\r",
											"    pm.response.to.have.status(201);\r",
											"});\r",
											"\r",
											"//extract response body \r",
											"var responseBody=pm.response.json();\r",
											"console.log(responseBody);\r",
											"//extract response body parameters\r",
											"var res_name=responseBody.name;\r",
											"var res_job=responseBody.job;\r",
											"var res_id=responseBody.id;\r",
											"var res_createdAt=responseBody.createdAt;\r",
											"\r",
											"//validate response body parameters\r",
											"pm.test(\"validate response body parameter: name\",function(){\r",
											"    pm.expect(res_name).to.eql(req_name);\r",
											"});\r",
											"\r",
											"pm.test(\"validate response body parameter: job\",function(){\r",
											"    pm.expect(res_job).to.eql(req_job);\r",
											"});\r",
											"\r",
											"pm.test(\"validate response body parameter: id\",function(){\r",
											"    pm.expect(res_id).to.not.null;\r",
											"    pm.expect(res_id).to.not.eql(\"0\");\r",
											"});\r",
											"pm.test(\"validate responsebody parameter:createdAt\",function(){\r",
											"    res_createdAt = res_createdAt.slice(0,11);\r",
											"console.log(res_createdAt);\r",
											"var expected_date = new Date();\r",
											"console.log(expected_date);\r",
											"var expected_date = new Date().toISOString().slice(0,11);\r",
											"pm.expect(res_createdAt).to.eql(expected_date);\r",
											"})\r",
											"\r",
											""
										],
										"type": "text/javascript"
									}
								}
							],
							"request": {
								"method": "POST",
								"header": [],
								"body": {
									"mode": "raw",
									"raw": "{\r\n    \"name\": \"morpheus\",\r\n    \"job\": \"leader\"\r\n}",
									"options": {
										"raw": {
											"language": "json"
										}
									}
								},
								"url": {
									"raw": "https://reqres.in/api/users",
									"protocol": "https",
									"host": [
										"reqres",
										"in"
									],
									"path": [
										"api",
										"users"
									]
								}
							},
							"response": []
						},
						{
							"name": "post_api_create _dataDriven_json",
							"event": [
								{
									"listen": "test",
									"script": {
										"exec": [
											"//validate request body parameters\r",
											"var requestBody=pm.request.body.raw;\r",
											"console.log(requestBody);\r",
											"requestBody=JSON.parse(requestBody);\r",
											"console.log(requestBody);\r",
											"var req_name=requestBody.name;\r",
											"var req_job=requestBody.job;\r",
											"//validate response code\r",
											"pm.test(\"status code is 201\",function(){\r",
											"    pm.response.to.have.status(201);\r",
											"});\r",
											"\r",
											"//extract response body \r",
											"var responseBody=pm.response.json();\r",
											"console.log(responseBody);\r",
											"//extract response body parameters\r",
											"var res_name=responseBody.name;\r",
											"var res_job=responseBody.job;\r",
											"var res_id=responseBody.id;\r",
											"var res_createdAt=responseBody.createdAt;\r",
											"\r",
											"//validate response body parameters\r",
											"pm.test(\"validate response body parameter: name\",function(){\r",
											"    pm.expect(res_name).to.eql(req_name);\r",
											"});\r",
											"\r",
											"pm.test(\"validate response body parameter: job\",function(){\r",
											"    pm.expect(res_job).to.eql(req_job);\r",
											"});\r",
											"\r",
											"pm.test(\"validate response body parameter: id\",function(){\r",
											"    pm.expect(res_id).to.not.null;\r",
											"    pm.expect(res_id).to.not.eql(\"0\");\r",
											"});\r",
											"pm.test(\"validate responsebody parameter:createdAt\",function(){\r",
											"    res_createdAt = res_createdAt.slice(0,11);\r",
											"console.log(res_createdAt);\r",
											"var expected_date = new Date();\r",
											"console.log(expected_date);\r",
											"var expected_date = new Date().toISOString().slice(0,11);\r",
											"pm.expect(res_createdAt).to.eql(expected_date);\r",
											"})\r",
											""
										],
										"type": "text/javascript"
									}
								}
							],
							"request": {
								"method": "POST",
								"header": [],
								"body": {
									"mode": "raw",
									"raw": "{\r\n    \"name\": \"{{name}}\",\r\n    \"job\": \"{{job}}\"\r\n}",
									"options": {
										"raw": {
											"language": "json"
										}
									}
								},
								"url": {
									"raw": "https://reqres.in/api/users",
									"protocol": "https",
									"host": [
										"reqres",
										"in"
									],
									"path": [
										"api",
										"users"
									]
								}
							},
							"response": []
						},
						{
							"name": "post_api_create _dataDriven_excel",
							"event": [
								{
									"listen": "test",
									"script": {
										"exec": [
											"//validate request body parameters\r",
											"var requestBody=pm.request.body.raw;\r",
											"console.log(requestBody);\r",
											"requestBody=JSON.parse(requestBody);\r",
											"console.log(requestBody);\r",
											"var req_name=requestBody.name;\r",
											"var req_job=requestBody.job;\r",
											"//validate response code\r",
											"pm.test(\"status code is 201\",function(){\r",
											"    pm.response.to.have.status(201);\r",
											"});\r",
											"\r",
											"//extract response body \r",
											"var responseBody=pm.response.json();\r",
											"console.log(responseBody);\r",
											"//extract response body parameters\r",
											"var res_name=responseBody.name;\r",
											"var res_job=responseBody.job;\r",
											"var res_id=responseBody.id;\r",
											"var res_createdAt=responseBody.createdAt;\r",
											"\r",
											"//validate response body parameters\r",
											"pm.test(\"validate response body parameter: name\",function(){\r",
											"    pm.expect(res_name).to.eql(req_name);\r",
											"});\r",
											"\r",
											"pm.test(\"validate response body parameter: job\",function(){\r",
											"    pm.expect(res_job).to.eql(req_job);\r",
											"});\r",
											"\r",
											"pm.test(\"validate response body parameter: id\",function(){\r",
											"    pm.expect(res_id).to.not.null;\r",
											"    pm.expect(res_id).to.not.eql(\"0\");\r",
											"});\r",
											"pm.test(\"validate responsebody parameter:createdAt\",function(){\r",
											"    res_createdAt = res_createdAt.slice(0,11);\r",
											"console.log(res_createdAt);\r",
											"var expected_date = new Date();\r",
											"console.log(expected_date);\r",
											"var expected_date = new Date().toISOString().slice(0,11);\r",
											"pm.expect(res_createdAt).to.eql(expected_date);\r",
											"})\r",
											""
										],
										"type": "text/javascript"
									}
								}
							],
							"request": {
								"method": "POST",
								"header": [],
								"body": {
									"mode": "raw",
									"raw": "{\r\n    \"name\": \"{{name}}\",\r\n    \"job\": \"{{job}}\"\r\n}",
									"options": {
										"raw": {
											"language": "json"
										}
									}
								},
								"url": {
									"raw": "https://reqres.in/api/users",
									"protocol": "https",
									"host": [
										"reqres",
										"in"
									],
									"path": [
										"api",
										"users"
									]
								}
							},
							"response": []
						},
						{
							"name": "post_api_register succesful",
							"event": [
								{
									"listen": "prerequest",
									"script": {
										"exec": [
											"var req_email=pm.variables.replaceIn('{{$randomEmail}}');\r",
											"console.log(req_email);\r",
											"pm.collectionVariables.set(\"coll_req_email\",req_email);\r",
											"var req_pw=pm.variables.replaceIn('{{$randomPassword}}');\r",
											"console.log(req_pw);\r",
											"pm.collectionVariables.set(\"coll_req_pw\",req_pw);\r",
											"\r",
											"\r",
											""
										],
										"type": "text/javascript"
									}
								},
								{
									"listen": "test",
									"script": {
										"exec": [
											"//validate response\r",
											"pm.test(\"response code is 200\",function(){\r",
											"    pm.response.to.have.status(200);\r",
											"})\r",
											"//extract response body\r",
											"var responseBody=pm.response.json();\r",
											"console.log(responseBody);\r",
											"//extract response body parameters\r",
											"var res_email=responseBody.email;\r",
											"var res_password=responseBody.password;\r",
											"//validate response body parameters\r",
											"pm.test(\"validate responseBody parameter:email\",function(){\r",
											"pm.expect(res_email).to.eql()\r",
											"})\r",
											"pm.test(\"validate response body parameter:pw\",function(){\r",
											"    pm.expect(res_password).to.equal()\r",
											"})\r",
											""
										],
										"type": "text/javascript"
									}
								}
							],
							"request": {
								"method": "POST",
								"header": [],
								"body": {
									"mode": "raw",
									"raw": "{\r\n    \"email\": \"eve.holt@reqres.in\",\r\n    \"password\": \"pistol\"\r\n}",
									"options": {
										"raw": {
											"language": "json"
										}
									}
								},
								"url": {
									"raw": "https://reqres.in/api/register",
									"protocol": "https",
									"host": [
										"reqres",
										"in"
									],
									"path": [
										"api",
										"register"
									]
								}
							},
							"response": []
						},
						{
							"name": "post_api_register unsuccesful",
							"event": [
								{
									"listen": "test",
									"script": {
										"exec": [
											"//validate rsponse status\r",
											"pm.test(\"response status is 400 bad request\",function(){\r",
											"    pm.response.to.have.status(400);\r",
											"})"
										],
										"type": "text/javascript"
									}
								}
							],
							"request": {
								"method": "POST",
								"header": [],
								"body": {
									"mode": "raw",
									"raw": "{\r\n    \"email\": \"sydney@fife\"\r\n}\r\n",
									"options": {
										"raw": {
											"language": "json"
										}
									}
								},
								"url": {
									"raw": "https://reqres.in/api/register",
									"protocol": "https",
									"host": [
										"reqres",
										"in"
									],
									"path": [
										"api",
										"register"
									]
								}
							},
							"response": []
						},
						{
							"name": "post_api_login succesful",
							"event": [
								{
									"listen": "test",
									"script": {
										"exec": [
											"//validate response code\r",
											"pm.test(\"status code is 200\",function(){\r",
											"    pm.response.to.have.status(200);\r",
											"})"
										],
										"type": "text/javascript"
									}
								},
								{
									"listen": "prerequest",
									"script": {
										"exec": [
											"var req_email=pm.variables.replaceIn('{{$randomEmail}}')\r",
											"console.log(req_email);\r",
											"pm.collectionVariables.set(\"coll_req_email\",req_email);\r",
											"var req_pw=pm.variables.replaceIn('{{$randomPassword}}');\r",
											"console.log(req_pw);\r",
											"pm.collectionVariables.set(\"coll_req_pw\",req_pw);"
										],
										"type": "text/javascript"
									}
								}
							],
							"request": {
								"method": "POST",
								"header": [],
								"body": {
									"mode": "raw",
									"raw": "{\r\n    \"email\": \"eve.holt@reqres.in\",\r\n    \"password\": \"cityslicka\"\r\n}",
									"options": {
										"raw": {
											"language": "json"
										}
									}
								},
								"url": {
									"raw": "https://reqres.in/api/login",
									"protocol": "https",
									"host": [
										"reqres",
										"in"
									],
									"path": [
										"api",
										"login"
									]
								}
							},
							"response": []
						},
						{
							"name": "post_api_login_unsuccesful",
							"event": [
								{
									"listen": "test",
									"script": {
										"exec": [
											"//validate response code\r",
											"pm.test(\"status is 400 bad request\",function(){\r",
											"    pm.response.to.have.status(400);\r",
											"})\r",
											"//extract response body\r",
											"//validate response body \r",
											"var responseBody=pm.response.json();\r",
											"console.log(responseBody);\r",
											"var res_error=responseBody.error;\r",
											"console.log(res_error)\r",
											"pm.test(\"validate response body parameter :error\",function(){\r",
											"    pm.expect(res_error).to.eql(\"Missing password\")\r",
											"})\r",
											""
										],
										"type": "text/javascript"
									}
								}
							],
							"request": {
								"method": "POST",
								"header": [],
								"body": {
									"mode": "raw",
									"raw": "{\r\n    \"email\": \"peter@klaven\"\r\n}",
									"options": {
										"raw": {
											"language": "json"
										}
									}
								},
								"url": {
									"raw": "https://reqres.in/api/login",
									"protocol": "https",
									"host": [
										"reqres",
										"in"
									],
									"path": [
										"api",
										"login"
									]
								}
							},
							"response": []
						}
					]
				},
				{
					"name": "getApis",
					"item": [
						{
							"name": "get_api_list_users",
							"event": [
								{
									"listen": "test",
									"script": {
										"exec": [
											"//DECLAR EEXPECTED RESULTS\r",
											"const id=[7,8,9,10,11,12]\r",
											"const email=[\"michael.lawson@reqres.in\",\"lindsay.ferguson@reqres.in\",\"tobias.funke@reqres.in\",\"byron.fields@reqres.in\",\"george.edwards@reqres.in\",\"rachel.howell@reqres.in\"]\r",
											"//EXTRACT  RESPONSE BODY\r",
											"var responseBody=pm.response.json();\r",
											"console.log(responseBody);\r",
											"//extract response body parameter\r",
											"//extract aaray length\r",
											"var data_array=responseBody.data;\r",
											"var count=Object.keys(data_array).length;\r",
											"console.log(count);\r",
											"for(i=0;i<count;i++){\r",
											"    var res_id=responseBody.data[i].id;\r",
											"    console.log(res_id);\r",
											"    var expt_id=id[i];\r",
											"    pm.test(\"validate responsebody parameter - \" +i+ \":id\",function(){\r",
											"    pm.expect(res_id).to.eqls(expt_id)\r",
											"    });\r",
											"\r",
											"    var res_email=responseBody.data[i].email;\r",
											"    console.log(res_email);\r",
											"    \r",
											"    var res_firstName=responseBody.data[i].first_name;\r",
											"    console.log(res_firstName);\r",
											"    \r",
											"    var res_lastName=responseBody.data[i].last_name;\r",
											"    console.log(res_lastName);\r",
											"}"
										],
										"type": "text/javascript"
									}
								}
							],
							"request": {
								"method": "GET",
								"header": [],
								"url": {
									"raw": "https://reqres.in/api/users?page=2",
									"protocol": "https",
									"host": [
										"reqres",
										"in"
									],
									"path": [
										"api",
										"users"
									],
									"query": [
										{
											"key": "page",
											"value": "2"
										}
									]
								}
							},
							"response": []
						},
						{
							"name": "get_api_single_user",
							"event": [
								{
									"listen": "test",
									"script": {
										"exec": [
											"//extract response body\r",
											"var responseBody=pm.response.json();\r",
											"console.log(responseBody);\r",
											"//extract response body parameters\r",
											"\r",
											"var res_id=responseBody.data.id;\r",
											"console.log(res_id);\r",
											"\r",
											" var res_email=responseBody.data.email;\r",
											"console.log(res_email);\r",
											"\r",
											"var res_firstName=responseBody.data.first_name;\r",
											"console.log(res_firstName);\r",
											"\r",
											"var res_lastName=responseBody.data.last_name;\r",
											"console.log(res_lastName);\r",
											" \r",
											" var res_text=responseBody.support.text;\r",
											" console.log(res_text);\r",
											"  \r",
											"  var res_url=responseBody.support.url;\r",
											"  console.log(res_url);\r",
											"//validate response body parameters\r",
											"pm.test(\"validate response body parameter data: id\",function(){\r",
											"    pm.expect(res_id).to.eql(2);\r",
											"})\r",
											"pm.test(\"validate response body parameter  data:email\",function(){\r",
											"    pm.expect(res_email).to.eql(\"janet.weaver@reqres.in\")\r",
											"})\r",
											"pm.test(\"validate response body parameter data:first name\",function(){\r",
											"pm.expect(res_firstName).to.eqls(\"Janet\");\r",
											"})\r",
											"pm.test(\"validate response body parameter data: last name\",function(){\r",
											"    pm.expect(res_lastName).to.eql(\"Weaver\");\r",
											"})\r",
											"pm.test(\"validate response body parameter support: url\",function(){\r",
											"    pm.expect(res_url).to.eql(\"https://reqres.in/#support-heading\");\r",
											"})\r",
											"pm.test(\"validate response body parameter support: text\",function(){\r",
											"    pm.expect(res_text).to.eql(\"To keep ReqRes free, contributions towards server costs are appreciated!\");\r",
											"})\r",
											"\r",
											""
										],
										"type": "text/javascript"
									}
								}
							],
							"protocolProfileBehavior": {
								"disableBodyPruning": true
							},
							"request": {
								"method": "GET",
								"header": [],
								"body": {
									"mode": "raw",
									"raw": "",
									"options": {
										"raw": {
											"language": "json"
										}
									}
								},
								"url": {
									"raw": "https://reqres.in/api/users/2",
									"protocol": "https",
									"host": [
										"reqres",
										"in"
									],
									"path": [
										"api",
										"users",
										"2"
									]
								}
							},
							"response": []
						},
						{
							"name": "get_api_singleUserNotFound",
							"event": [
								{
									"listen": "test",
									"script": {
										"exec": [
											"//VALIDATE RESPONSE CODE\r",
											"pm.test(\"response is 404 Not Found\",function(){\r",
											"    pm.response.to.have.status(404 );\r",
											"})"
										],
										"type": "text/javascript"
									}
								}
							],
							"request": {
								"method": "GET",
								"header": [],
								"url": {
									"raw": "https://reqres.in/api/users/23",
									"protocol": "https",
									"host": [
										"reqres",
										"in"
									],
									"path": [
										"api",
										"users",
										"23"
									]
								}
							},
							"response": []
						},
						{
							"name": "get_api_list<resource>",
							"event": [
								{
									"listen": "test",
									"script": {
										"exec": [
											"//declare expected result\r",
											"const id=[1,2,3,4,5,6];\r",
											"const name=[\"cerulean\",\"fuchsia rose\",\"true red\", \"aqua sky\",\"tigerlily\",\"blue turquoise\"];\r",
											"const year =[ 2000,2001,2002,2003,2004,2005];\r",
											"const color=[\"#98B2D1\",\"#C74375\",\"#BF1932\",\"#7BC4C4\",\"#E2583E\",\"#53B0AE\"]\r",
											"\r",
											"//validate response code\r",
											"pm.test(\"response is 200 ok\",function(){\r",
											"    pm.response.to.have.status(200);\r",
											"})\r",
											"//extract response body\r",
											"var responseBody=pm.response.json();\r",
											"console.log(responseBody);\r",
											"//extract array length\r",
											"var array_length=responseBody.data;\r",
											"var count=Object.keys(array_length).length;\r",
											"console.log(count);\r",
											"//extract response body parameters\r",
											"for(i=0;i<count;i++){\r",
											"    var res_id=responseBody.data[i].id;\r",
											"    console.log(res_id);\r",
											"    var exp_id=id[i];\r",
											"    pm.test(\"validate responsebody parameter - id :\"+\" \" +i ,function(){\r",
											"        pm.expect(res_id).to.eql(exp_id);\r",
											"    })\r",
											"    var res_year=responseBody.data[i].year;\r",
											"    console.log(res_year);\r",
											"    var exp_year=year[i];\r",
											"    pm.test(\"validate response body parameter - year :\"+\" \"+i,function(){\r",
											"        pm.expect(res_year).to.eql(exp_year);\r",
											"\r",
											"    })\r",
											"    var res_name=responseBody.data[i].name;\r",
											"    console.log(res_name);\r",
											"    var exp_name=name[i];\r",
											"    pm.test(\"validate response baody parameter - name:\"+\" \"+i,function(){\r",
											"        pm.expect(res_name).to.eql(exp_name);\r",
											"    })\r",
											"    var res_color=responseBody.data[i].color;\r",
											"    console.log(res_color);\r",
											"    var exp_color=color[i];\r",
											"    pm.test(\"validate response body parameter - color:\"+\" \"+i);\r",
											"    pm.expect(res_color).to.eql(exp_color);\r",
											"    \r",
											"\r",
											"}\r",
											"\r",
											"\r",
											""
										],
										"type": "text/javascript"
									}
								}
							],
							"request": {
								"method": "GET",
								"header": [],
								"url": {
									"raw": "https://reqres.in/api/unknown",
									"protocol": "https",
									"host": [
										"reqres",
										"in"
									],
									"path": [
										"api",
										"unknown"
									]
								}
							},
							"response": []
						},
						{
							"name": "get_api_single_resource",
							"event": [
								{
									"listen": "test",
									"script": {
										"exec": [
											"//validate respons status\r",
											"pm.test(\"response status is 200 ok\",function(){\r",
											"    pm.response.to.have.status(200);\r",
											"})\r",
											"//extract response body \r",
											"var responseBody=pm.response.json();\r",
											"console.log(responseBody);\r",
											"\r",
											"//extract response body parameter\r",
											"var res_id=responseBody.data.id;\r",
											"var res_name=responseBody.data.name;\r",
											"var res_year=responseBody.data.year;\r",
											"var res_color=responseBody.data.color;\r",
											"var res_url=responseBody.support.url;\r",
											"var res_text=responseBody.support.text;\r",
											"console.log(res_id);\r",
											"console.log(res_name);\r",
											"console.log(res_year);\r",
											"console.log(res_color);\r",
											"console.log(res_url);\r",
											"console.log(res_text);\r",
											"\r",
											"//validate response body parameters\r",
											"pm.test(\"validate response body parameter :id\",function(){\r",
											"    pm.expect(res_id).to.equal(2);\r",
											"});\r",
											"pm.test(\"validate response body parameter :name\",function(){\r",
											"    pm.expect(res_name).to.eql(\"fuchsia rose\");\r",
											"})\r",
											"pm.test(\"validate response body parameter :year\",function(){\r",
											"    pm.expect(res_year).to.eql(2001);\r",
											"})\r",
											"pm.test(\"validate response body parameter :color\",function(){\r",
											"    pm.expect(res_color).to.eql(\"#C74375\");\r",
											"    })\r",
											"    pm.test(\"validate response body parameter :url\",function(){\r",
											"        pm.expect(res_url).to.eql(\"https://reqres.in/#support-heading\");\r",
											"    })\r",
											"     pm.test(\"validate response body parameter :text\",function(){\r",
											"        pm.expect(res_text).to.eql(\"To keep ReqRes free, contributions towards server costs are appreciated!\");\r",
											"     })\r",
											"\r",
											"\r",
											"\r",
											"\r",
											""
										],
										"type": "text/javascript"
									}
								}
							],
							"request": {
								"method": "GET",
								"header": [],
								"url": {
									"raw": "https://reqres.in/api/unknown/2",
									"protocol": "https",
									"host": [
										"reqres",
										"in"
									],
									"path": [
										"api",
										"unknown",
										"2"
									]
								}
							},
							"response": []
						},
						{
							"name": "get_api_singleResourceNotFound",
							"event": [
								{
									"listen": "test",
									"script": {
										"exec": [
											"//validate response status\r",
											"pm.test(\"response ststus is 404 not found\",function(){\r",
											"    pm.response.to.have.status(404);\r",
											"})"
										],
										"type": "text/javascript"
									}
								}
							],
							"protocolProfileBehavior": {
								"disableBodyPruning": true
							},
							"request": {
								"method": "GET",
								"header": [],
								"body": {
									"mode": "raw",
									"raw": "",
									"options": {
										"raw": {
											"language": "json"
										}
									}
								},
								"url": {
									"raw": "https://reqres.in/api/unknown/23",
									"protocol": "https",
									"host": [
										"reqres",
										"in"
									],
									"path": [
										"api",
										"unknown",
										"23"
									]
								}
							},
							"response": []
						},
						{
							"name": "get_api_delayed_response",
							"request": {
								"method": "GET",
								"header": [],
								"url": {
									"raw": "https://reqres.in/api/users?delay=3",
									"protocol": "https",
									"host": [
										"reqres",
										"in"
									],
									"path": [
										"api",
										"users"
									],
									"query": [
										{
											"key": "delay",
											"value": "3"
										}
									]
								}
							},
							"response": []
						}
					]
				},
				{
					"name": "putApis",
					"item": [
						{
							"name": "New Request",
							"event": [
								{
									"listen": "test",
									"script": {
										"exec": [
											"//extract request body\r",
											"var requestBody=pm.request.body.raw;\r",
											"console.log(requestBody);\r",
											"requestBody=JSON.parse(requestBody);\r",
											"console.log(requestBody);\r",
											"//extract request body parameters\r",
											"var req_name=requestBody.name;\r",
											"var req_job=requestBody.job;\r",
											"\r",
											"console.log(req_name);\r",
											"console.log(req_job);\r",
											"\r",
											"//validate response code\r",
											"pm.test(\"response status is 200 ok\",function(){\r",
											"    pm.response.to.have.status(200);\r",
											"    })\r",
											"    //extract response body \r",
											"    var responseBody=pm.response.json();\r",
											"    console.log(responseBody);\r",
											"    //extact response body parameter\r",
											"    var res_name=responseBody.name;\r",
											"    console.log(res_name);\r",
											"    var res_job=responseBody.job;\r",
											"    console.log(res_job);\r",
											"    var res_time=responseBody.updatedAt\r",
											"    console.log(res_time);\r",
											"    //validate response body parameters\r",
											"    pm.test(\"validate response body parameter :name\",function(){\r",
											"        pm.expect(res_name).to.eql(req_name);\r",
											"    })\r",
											"    pm.test(\"validate response body parameter :\"+\" \"+\"job\",function(){\r",
											"        pm.expect(res_job).to.eqls(req_job);\r",
											"    })\r",
											"    pm.test(\"validate response body parameter :\"+\" \"+\"time\",function(){\r",
											"        pm.expect(res_time).to.not.null;\r",
											"         res_time=res_time.slice(0,11);\r",
											"         console.log(res_time);\r",
											"         var exp_time=new Date();\r",
											"         console.log(exp_time);\r",
											"         exp_time=new Date().toISOString().slice(0,11);\r",
											"         pm.expect(res_time).to.eql(exp_time);\r",
											"\r",
											"    })\r",
											"\r",
											"\r",
											"\r",
											"\r",
											"\r",
											"\r",
											""
										],
										"type": "text/javascript"
									}
								}
							],
							"request": {
								"method": "PUT",
								"header": [],
								"body": {
									"mode": "raw",
									"raw": "{\r\n    \"name\": \"morpheus\",\r\n    \"job\": \"zion resident\"\r\n}",
									"options": {
										"raw": {
											"language": "json"
										}
									}
								},
								"url": {
									"raw": "https://reqres.in/api/users/2",
									"protocol": "https",
									"host": [
										"reqres",
										"in"
									],
									"path": [
										"api",
										"users",
										"2"
									]
								}
							},
							"response": []
						}
					]
				},
				{
					"name": "patchApi",
					"item": [
						{
							"name": "New Request",
							"event": [
								{
									"listen": "test",
									"script": {
										"exec": [
											"//validate request body parameters\r",
											"var requestBody=pm.request.body.raw;\r",
											"console.log(requestBody);\r",
											"requestBody=JSON.parse(requestBody);\r",
											"console.log(requestBody);\r",
											"var req_name=requestBody.name;\r",
											"var req_job=requestBody.job;\r",
											"console.log(req_name);\r",
											"console.log(req_job);\r",
											"//validate response code\r",
											"pm.test(\"response code is 200\",function(){\r",
											"    pm.response.to.have.status(200);\r",
											"})\r",
											"//extract response body\r",
											"var responseBody=pm.response.json();\r",
											"console.log(responseBody);\r",
											"//extract response body parameters\r",
											"var res_name=responseBody.name;\r",
											"var res_job=responseBody.job;\r",
											"var res_date=responseBody.updatedAt;\r",
											"console.log(res_name);\r",
											"console.log(res_job);\r",
											"console.log(res_date);\r",
											"//validate response body parameters\r",
											"pm.test(\"validate parameter : name\",function(){\r",
											"    pm.expect(res_name).to.eql(req_name);\r",
											"})\r",
											"pm.test(\"validate parameter :job\",function(){\r",
											"    pm.expect(res_job).to.eql(req_job);\r",
											"})\r",
											"pm.test(\"validate parameter date\",function(){\r",
											"    pm.expect(res_date).to.not.null;\r",
											"    var newDate=res_date.slice(0,11);\r",
											"    console.log(newDate);\r",
											"    var expectedDate=new Date();\r",
											"    console.log(expectedDate);\r",
											"    expectedDate=new Date().toISOString().slice(0,11);\r",
											"    pm.expect(newDate).to.eql(expectedDate);\r",
											"})\r",
											""
										],
										"type": "text/javascript"
									}
								}
							],
							"request": {
								"method": "PATCH",
								"header": [],
								"body": {
									"mode": "raw",
									"raw": "{\r\n    \"name\": \"morpheus\",\r\n    \"job\": \"zion resident\"\r\n}",
									"options": {
										"raw": {
											"language": "json"
										}
									}
								},
								"url": {
									"raw": "https://reqres.in/api/users/2",
									"protocol": "https",
									"host": [
										"reqres",
										"in"
									],
									"path": [
										"api",
										"users",
										"2"
									]
								}
							},
							"response": []
						}
					]
				},
				{
					"name": "deleteApi",
					"item": [
						{
							"name": "New Request",
							"event": [
								{
									"listen": "test",
									"script": {
										"exec": [
											"//VALIDATE RESPONSE CODE\r",
											"pm.test(\"response  is 204 No Content\",function(){\r",
											"    pm.response.to.have.status(204);\r",
											"});"
										],
										"type": "text/javascript"
									}
								}
							],
							"request": {
								"method": "DELETE",
								"header": [],
								"url": {
									"raw": "https://reqres.in/api/users/2",
									"protocol": "https",
									"host": [
										"reqres",
										"in"
									],
									"path": [
										"api",
										"users",
										"2"
									]
								}
							},
							"response": []
						}
					]
				}
			]
		}
	],
	"event": [
		{
			"listen": "prerequest",
			"script": {
				"type": "text/javascript",
				"exec": [
					""
				]
			}
		},
		{
			"listen": "test",
			"script": {
				"type": "text/javascript",
				"exec": [
					""
				]
			}
		}
	],
	"variable": [
		{
			"key": "email",
			"value": "",
			"type": "string"
		},
		{
			"key": "pw",
			"value": "",
			"type": "string"
		},
		{
			"key": "coll_req_email",
			"value": ""
		},
		{
			"key": "coll_req_pw",
			"value": ""
		}
	]
}